<?xml version="1.0" encoding="utf-8"?>
<!-- Generator: Adobe Illustrator 16.0.0, SVG Export Plug-In . SVG Version: 6.00 Build 0)  -->
<!DOCTYPE svg PUBLIC "-//W3C//DTD SVG 1.1//EN" "http://www.w3.org/Graphics/SVG/1.1/DTD/svg11.dtd">
<svg version="1.1" id="Layer_1" xmlns="http://www.w3.org/2000/svg" xmlns:xlink="http://www.w3.org/1999/xlink" x="0px" y="0px"
	 width="17.96px" height="22.202px" viewBox="0 0 17.96 22.202" enable-background="new 0 0 17.96 22.202" xml:space="preserve">
<g>
	<path fill-rule="evenodd" clip-rule="evenodd" fill="#FFFFFF" d="M12.205,3.539c0.752-0.94,1.301-2.235,1.16-3.539
		c-1.125,0.041-2.467,0.741-3.266,1.688c-0.718,0.814-1.341,2.16-1.163,3.425C10.16,5.194,11.416,4.484,12.205,3.539L12.205,3.539z"
		/>
	<path fill-rule="evenodd" clip-rule="evenodd" fill="#FFFFFF" d="M15.462,13.817H0.138l0.002-0.001h15.305v-0.034
		c-0.352-0.705-0.51-1.81-0.378-2.702v-0.035h0.003c0.139-1.169,0.893-2.367,1.496-2.802c0.006-0.005,0.016-0.011,0.023-0.017V8.223
		l0,0l0,0c0.135-0.146,0.518-0.453,0.773-0.637c-0.951-1.399-2.506-2.154-4.092-2.178c-1.597-0.133-3.256,1.011-4.15,0.985
		C8.256,6.419,6.949,5.385,5.57,5.45L5.556,5.448c-0.029,0-0.279,0.014-0.279,0.014C3.45,5.507,1.829,6.584,0.91,8.217v0.005H0.904
		V8.217c-0.365,0.588-0.801,1.961-0.867,2.828l0,0v0.048c-0.088,0.55-0.002,2.018,0.097,2.725l0,0
		c0.005,0.012,0.005,0.025,0.007,0.036l0.001-0.003c0.078,0.705,0.435,2.065,0.704,2.729v0.006H0.842
		c0.257,0.734,0.977,2.113,1.44,2.816v0.007h0.004c0.938,1.345,2.039,2.856,3.494,2.791c1.406-0.052,1.923-0.932,3.615-0.919
		c1.691-0.013,2.159,0.877,3.641,0.885c1.512-0.066,2.447-1.41,3.386-2.757c0.458-0.694,1.177-2.03,1.434-2.823h0.002
		c0.03-0.084,0.071-0.213,0.103-0.307C16.965,15.997,15.851,14.689,15.462,13.817L15.462,13.817z"/>
</g>
</svg>
