<?xml version="1.0" encoding="utf-8"?>
<!-- Generator: Adobe Illustrator 16.0.0, SVG Export Plug-In . SVG Version: 6.00 Build 0)  -->
<!DOCTYPE svg PUBLIC "-//W3C//DTD SVG 1.1//EN" "http://www.w3.org/Graphics/SVG/1.1/DTD/svg11.dtd">
<svg version="1.1" id="Layer_1" xmlns="http://www.w3.org/2000/svg" xmlns:xlink="http://www.w3.org/1999/xlink" x="0px" y="0px"
	 width="117.296px" height="88.293px" viewBox="0 0 117.296 88.293" enable-background="new 0 0 117.296 88.293"
	 xml:space="preserve">
<g id="XMLID_1586_">
	<path id="XMLID_1600_" fill="#00AFF0" d="M17.985,42.561l25.696,14.838c0.723,0.406,1.632,0.15,2.024-0.533l0.756-1.285
		c0.415-0.725,0.154-1.63-0.551-2.045L20.202,38.696c-0.701-0.408-1.617-0.173-2.023,0.55l-0.744,1.284
		C17.023,41.233,17.268,42.146,17.985,42.561L17.985,42.561z M17.985,42.561"/>
	<path id="XMLID_1597_" fill="#00AFF0" d="M41.123,4.059L66.82,18.9c0.723,0.408,1.632,0.154,2.027-0.533l0.751-1.285
		c0.415-0.728,0.156-1.63-0.549-2.043L43.341,0.2c-0.703-0.411-1.616-0.171-2.022,0.55l-0.742,1.282
		C40.163,2.734,40.409,3.648,41.123,4.059L41.123,4.059z M41.123,4.059"/>
	<path id="XMLID_1594_" fill="#00AFF0" d="M108.634,60.691L57.191,34.016L64.1,22.039c0.41-0.707,0.171-1.614-0.532-2.027
		L40.422,6.646c-0.72-0.404-1.63-0.151-2.042,0.554L22.064,35.477c-0.397,0.691-0.169,1.627,0.543,2.023l23.134,13.357
		c0.705,0.414,1.63,0.174,2.023-0.524l6.932-11.995l48.83,31.242c0.682,0.426,1.575,0.22,1.983-0.501l3.708-6.436
		C109.631,61.941,109.371,61.063,108.634,60.691L108.634,60.691z M108.634,60.691"/>
	<path id="XMLID_1591_" fill="#00AFF0" d="M116.762,64.449l-2.571-1.489c-0.703-0.399-1.626-0.158-2.036,0.545l-4.448,7.72
		c-0.41,0.705-0.169,1.615,0.536,2.025l2.572,1.47c0.718,0.415,1.632,0.175,2.04-0.542l4.441-7.701
		C117.711,65.765,117.47,64.842,116.762,64.449L116.762,64.449z M116.762,64.449"/>
	<path id="XMLID_1587_" fill="#00AFF0" d="M61.2,73.596l-3.091,0.002c0.4-0.439,0.648-1,0.648-1.633l0.009-2.441
		c-0.002-1.352-1.101-2.449-2.453-2.454L7.345,67.074c-1.352-0.007-2.449,1.092-2.449,2.451l-0.002,2.438
		c0.002,0.633,0.257,1.201,0.663,1.633l-3.091,0.002C1.104,73.596,0.004,74.715,0,76.047l0.006,9.793
		c0,1.336,1.094,2.453,2.465,2.451l58.728,0.002c1.357,0,2.455-1.111,2.455-2.446l-0.002-9.8
		C63.653,74.711,62.558,73.591,61.2,73.596L61.2,73.596z M57.728,84.92L6.167,84.915c-1.43,0.003-2.576-1.166-2.574-2.574
		l-0.002-2.573c-0.002-1.42,1.146-2.588,2.569-2.57l51.565-0.004c1.419-0.003,2.583,1.15,2.58,2.557l-0.002,2.594
		C60.302,83.749,59.14,84.915,57.728,84.92L57.728,84.92z M57.728,84.92"/>
</g>
</svg>
